<?xml version="1.0" encoding="UTF-8" standalone="no"?>
<svg
   xmlns:dc="http://purl.org/dc/elements/1.1/"
   xmlns:cc="http://creativecommons.org/ns#"
   xmlns:rdf="http://www.w3.org/1999/02/22-rdf-syntax-ns#"
   xmlns:svg="http://www.w3.org/2000/svg"
   xmlns="http://www.w3.org/2000/svg"
   xmlns:sodipodi="http://sodipodi.sourceforge.net/DTD/sodipodi-0.dtd"
   xmlns:inkscape="http://www.inkscape.org/namespaces/inkscape"
   width="1440"
   height="1080"
   viewBox="0 0 381.00002 285.75"
   version="1.1"
   id="svg262"
   inkscape:version="1.0.1 (0767f8302a, 2020-10-17)"
   sodipodi:docname="048letters.svg">
  <defs
     id="defs256">
    <marker
       style="overflow:visible;"
       id="marker1544"
       refX="0.0"
       refY="0.0"
       orient="auto"
       inkscape:stockid="Arrow2Mend"
       inkscape:isstock="true">
      <path
         transform="scale(0.6) rotate(180) translate(0,0)"
         d="M 8.7185878,4.0337352 L -2.2072895,0.016013256 L 8.7185884,-4.0017078 C 6.9730900,-1.6296469 6.9831476,1.6157441 8.7185878,4.0337352 z "
         style="fill-rule:evenodd;stroke-width:0.625;stroke-linejoin:round;stroke:#808080;stroke-opacity:1;fill:#808080;fill-opacity:1"
         id="path1542" />
    </marker>
    <marker
       style="overflow:visible"
       id="marker1534"
       refX="0.0"
       refY="0.0"
       orient="auto"
       inkscape:stockid="Arrow1Sstart"
       inkscape:isstock="true">
      <path
         transform="scale(0.2) translate(6,0)"
         style="fill-rule:evenodd;stroke:#808080;stroke-width:1pt;stroke-opacity:1;fill:#808080;fill-opacity:1"
         d="M 0.0,0.0 L 5.0,-5.0 L -12.5,0.0 L 5.0,5.0 L 0.0,0.0 z "
         id="path1532" />
    </marker>
    <marker
       id="ExperimentalArrow"
       refX="5.0"
       refY="3.0"
       orient="auto-start-reverse"
       inkscape:stockid="ExperimentalArrow"
       inkscape:isstock="true">
      <path
         style="fill:context-stroke;stroke:#000000;stroke-opacity:1"
         d="m 10,3 -10,3 0,-6 z"
         id="path1301" />
    </marker>
    <marker
       style="overflow:visible"
       id="Arrow1Lstart"
       refX="0.0"
       refY="0.0"
       orient="auto"
       inkscape:stockid="Arrow1Lstart"
       inkscape:isstock="true">
      <path
         transform="scale(0.8) translate(12.5,0)"
         style="fill-rule:evenodd;stroke:#000000;stroke-width:1pt;stroke-opacity:1;fill:#000000;fill-opacity:1"
         d="M 0.0,0.0 L 5.0,-5.0 L -12.5,0.0 L 5.0,5.0 L 0.0,0.0 z "
         id="path1048" />
    </marker>
    <marker
       style="overflow:visible;"
       id="Arrow1Lend"
       refX="0.0"
       refY="0.0"
       orient="auto"
       inkscape:stockid="Arrow1Lend"
       inkscape:isstock="true">
      <path
         transform="scale(0.8) rotate(180) translate(12.5,0)"
         style="fill-rule:evenodd;stroke:#000000;stroke-width:1pt;stroke-opacity:1;fill:#000000;fill-opacity:1"
         d="M 0.0,0.0 L 5.0,-5.0 L -12.5,0.0 L 5.0,5.0 L 0.0,0.0 z "
         id="path1051" />
    </marker>
  </defs>
  <sodipodi:namedview
     id="base"
     pagecolor="#ffffff"
     bordercolor="#666666"
     borderopacity="1.0"
     inkscape:pageopacity="0.0"
     inkscape:pageshadow="2"
     inkscape:zoom="0.49814815"
     inkscape:cx="928.17118"
     inkscape:cy="536.98885"
     inkscape:document-units="mm"
     inkscape:current-layer="layer1"
     inkscape:document-rotation="0"
     showgrid="false"
     inkscape:window-width="1315"
     inkscape:window-height="713"
     inkscape:window-x="51"
     inkscape:window-y="27"
     inkscape:window-maximized="1"
     units="px"
     width="1440px" />
  <metadata
     id="metadata259">
    <rdf:RDF>
      <cc:Work
         rdf:about="">
        <dc:format>image/svg+xml</dc:format>
        <dc:type
           rdf:resource="http://purl.org/dc/dcmitype/StillImage" />
        <dc:title />
      </cc:Work>
    </rdf:RDF>
  </metadata>
  <g
     inkscape:label="Layer 1"
     inkscape:groupmode="layer"
     id="layer1">
    <text
       xml:space="preserve"
       style="font-style:normal;font-variant:normal;font-weight:normal;font-stretch:normal;font-size:25px;line-height:1.25;font-family:'Andika New Basic';-inkscape-font-specification:'Andika New Basic';text-align:center;text-anchor:middle;fill:#000000;fill-opacity:1;stroke:none;stroke-width:0.264583"
       x="191.16528"
       y="44.53125"
       id="text62"><tspan
         sodipodi:role="line"
         id="tspan60"
         x="191.16528"
         y="44.53125"
         style="font-style:normal;font-variant:normal;font-weight:normal;font-stretch:normal;font-size:25px;font-family:'Andika New Basic';-inkscape-font-specification:'Andika New Basic';text-align:center;text-anchor:middle;stroke-width:0.264583">Letters &amp; More</tspan></text>
    <text
       xml:space="preserve"
       style="font-style:normal;font-variant:normal;font-weight:normal;font-stretch:normal;font-size:10.5833px;line-height:1.1;font-family:'Andika New Basic';-inkscape-font-specification:'Andika New Basic';text-align:center;text-anchor:middle;fill:#000000;fill-opacity:1;stroke:none;stroke-width:0.264583"
       x="190.28027"
       y="259.49219"
       id="text2193"><tspan
         sodipodi:role="line"
         x="190.28027"
         y="259.49219"
         style="font-style:normal;font-variant:normal;font-weight:normal;font-stretch:normal;font-size:12px;font-family:'Andika New Basic';-inkscape-font-specification:'Andika New Basic, Normal';font-variant-ligatures:normal;font-variant-caps:normal;font-variant-numeric:normal;font-variant-east-asian:normal;text-align:center;text-anchor:middle;stroke-width:0.264583"
         id="tspan3883">latin, greek, cyrillic</tspan></text>
    <text
       style="font-style:normal;font-variant:normal;font-weight:normal;font-stretch:normal;font-size:6;line-height:1.25;font-family:'Andika New Basic';-inkscape-font-specification:'Andika New Basic';fill:#999999;fill-opacity:1;stroke:none;stroke-width:2"
       x="10"
       y="10"
       id="folio">048letters</text>
    <text
       xml:space="preserve"
       style="font-style:normal;font-weight:normal;font-size:16px;line-height:1.25;font-family:sans-serif;fill:#000000;fill-opacity:1;stroke:none;stroke-width:0.264583"
       x="148.65625"
       y="108.94164"
       id="text2827"><tspan
         sodipodi:role="line"
         id="tspan2825"
         x="148.65625"
         y="108.94164"
         style="font-style:normal;font-variant:normal;font-weight:normal;font-stretch:normal;font-size:16px;font-family:'Andika New Basic';-inkscape-font-specification:'Andika New Basic';stroke-width:0.264583">ABCabc</tspan><tspan
         sodipodi:role="line"
         x="148.65625"
         y="128.97668"
         style="font-style:normal;font-variant:normal;font-weight:normal;font-stretch:normal;font-size:16px;font-family:'Andika New Basic';-inkscape-font-specification:'Andika New Basic';stroke-width:0.264583"
         id="tspan2829">123 &amp; ! #</tspan><tspan
         sodipodi:role="line"
         x="148.65625"
         y="149.01172"
         style="font-style:normal;font-variant:normal;font-weight:normal;font-stretch:normal;font-size:16px;font-family:'Andika New Basic';-inkscape-font-specification:'Andika New Basic';stroke-width:0.264583"
         id="tspan2833">. … - – — ―</tspan><tspan
         sodipodi:role="line"
         x="148.65625"
         y="169.04675"
         style="font-style:normal;font-variant:normal;font-weight:normal;font-stretch:normal;font-size:16px;font-family:'Andika New Basic';-inkscape-font-specification:'Andika New Basic';stroke-width:0.264583"
         id="tspan2839">ΑΒΓαβγ</tspan><tspan
         sodipodi:role="line"
         x="148.65625"
         y="189.08179"
         style="font-style:normal;font-variant:normal;font-weight:normal;font-stretch:normal;font-size:16px;font-family:'Andika New Basic';-inkscape-font-specification:'Andika New Basic';stroke-width:0.264583"
         id="tspan2841">АБВабв</tspan><tspan
         sodipodi:role="line"
         x="148.65625"
         y="209.11684"
         style="font-style:normal;font-variant:normal;font-weight:normal;font-stretch:normal;font-size:16px;font-family:'Andika New Basic';-inkscape-font-specification:'Andika New Basic';stroke-width:0.264583"
         id="tspan2835" /></text>
  </g>
</svg>
